^C:\USERS\MMAJAK\DOCUMENTS\VISUAL STUDIO 2013\PROJECTS\LIBGIT2TEST\LIBGIT2TEST\GITPROJECTINFO.CPP|C:\USERS\MMAJAK\DOCUMENTS\VISUAL STUDIO 2013\PROJECTS\LIBGIT2TEST\LIBGIT2TEST\MAIN.CPP
C:\USERS\MMAJAK\DOCUMENTS\VISUAL STUDIO 2013\PROJECTS\LIBGIT2TEST\LIBGIT2TEST\DEBUG\VC120.PDB
C:\USERS\MMAJAK\DOCUMENTS\VISUAL STUDIO 2013\PROJECTS\LIBGIT2TEST\LIBGIT2TEST\DEBUG\VC120.IDB
C:\USERS\MMAJAK\DOCUMENTS\VISUAL STUDIO 2013\PROJECTS\LIBGIT2TEST\LIBGIT2TEST\DEBUG\GITPROJECTINFO.OBJ
C:\USERS\MMAJAK\DOCUMENTS\VISUAL STUDIO 2013\PROJECTS\LIBGIT2TEST\LIBGIT2TEST\DEBUG\MAIN.OBJ
^C:\USERS\MMAJAK\DOCUMENTS\VISUAL STUDIO 2013\PROJECTS\LIBGIT2TEST\LIBGIT2TEST\GITPROJECTINFO.CPP
C:\USERS\MMAJAK\DOCUMENTS\VISUAL STUDIO 2013\PROJECTS\LIBGIT2TEST\LIBGIT2TEST\DEBUG\VC120.PDB
^C:\USERS\MMAJAK\DOCUMENTS\VISUAL STUDIO 2013\PROJECTS\LIBGIT2TEST\LIBGIT2TEST\MAIN.CPP
C:\USERS\MMAJAK\DOCUMENTS\VISUAL STUDIO 2013\PROJECTS\LIBGIT2TEST\LIBGIT2TEST\DEBUG\VC120.PDB
